{
	"agcgw":{
		"backurl":"connect-dra.dbankcloud.cn",
		"url":"connect-dra.hispace.hicloud.com"
	},
	"client":{
		"cp_id":"2640057000001655598",
		"product_id":"736430079244531310",
		"client_id":"392324269100500160",
		"client_secret":"37929556FD65710BAE8639E918DFE937C42756652942A9B2C0226C24DCBC7BF5",
		"app_id":"102462331",
		"package_name":"org.midorinext.android",
		"api_key":"CgB6e3x93ck+EFdyrTIV2KWVQoi0xCN9PoRUof9bxY7hfBSY3E/WAXc99TvE6NBW77jF7cvjOFyfH8FeKzWmaTKL"
	},
	"service":{
		"analytics":{
			"collector_url":"datacollector-dra.dt.hicloud.com,datacollector-dra.dt.dbankcloud.cn",
			"resource_id":"p1",
			"channel_id":""
		},
		"cloudstorage":{
			"storage_url":"https://agc-storage-dra.platform.dbankcloud.cn"
		},
		"ml":{
			"mlservice_url":"ml-api-dra.ai.dbankcloud.com,ml-api-dra.ai.dbankcloud.cn"
		}
	},
	"region":"SG",
	"configuration_version":"1.0"
}